Construction,Product,Amount,Provider,AvailabilityDate,Situation,Limit,UnitType,Recurrent,AmountPerUnit,DataBaixa
Parque Lumiar,Cimento,3,Teste1,"terça-feira, 6 de março de 2018",Usado,10,KG,Não,1,"quarta-feira, 28 de março de 2018"
Santa Lucia,Tijolo,1,Teste1,"quarta-feira, 21 de março de 2018",Disponível,2,Caminhão,Sim,1000,"quinta-feira, 8 de março de 2018"
Santa Lucia,Cimento,1,Teste1,"quarta-feira, 21 de março de 2018",Disponível,10,KG,Não,1,"quinta-feira, 8 de março de 2018"
Parque Lumiar,Tijolo,4,Teste1,"quarta-feira, 28 de março de 2018",Usado,2,Caminhão,Sim,1000,"quarta-feira, 28 de março de 2018"
Santa Lucia,Vergalhão,1,Teste1,"segunda-feira, 2 de abril de 2018",Disponível,20,Unidade,Sim,1,
